{
  "definitions": {},
    "$schema": "http://json-schema.org/draft-07/schema#",
    "$id": "http://example.com/root.json",
    "type": "object",
    "title": "The Root Schema",
    "required": [
      "sweets"
    ],
    "properties": {
      "sweets" : {
        "$id": "#/properties/sweets",
        "type": "array",
        "title": "The Sweets Schema",
        "items": {
          "$id": "#/properties/sweets/items",
          "type": "object",
          "title": "The Items Schema",
          "required": [
            "name",
            "caloric_content",
            "type",
            "ingredients",
            "values",
            "production"
          ],
          "properties": {
            "name": {
              "$id": "#/properties/sweets/items/properties/name",
              "type": "string",
              "title": "The Name candy",
              "default": "",
              "examples": [
                "Golden key"
              ],
              "pattern": "^(.*)$"
            },
            "caloric_content": {
              "$id": "#/properties/sweets/items/properties/caloric_content",
              "type": "integer",
              "title": "The Caloric_content Schema",
              "default": 0,
              "examples": [
                750
              ]
            },
            "type": {
              "$id": "#/properties/sweets/items/properties/type",
              "type": "string",
              "title": "The Type of candy",
              "default": "",
              "examples": [
                "Caramel"
              ],
              "pattern": "^(.*)$"
            },
            "ingredients": {
              "$id": "#/properties/sweets/items/properties/ingredients",
              "type": "object",
              "title": "The Ingredients candy",
              "required": [
                "sugar",
                "fructose",
                "vanilla",
                "water",
                "milk"
              ],
              "properties": {
                "sugar": {
                  "$id": "#/properties/sweets/items/properties/ingredients/properties/sugar",
                  "type": "integer",
                  "title": "Amount of sugar",
                  "description": "Units: milligrams",
                  "default": 0,
                  "examples": [
                    500
                  ]
                },
                "fructose": {
                  "$id": "#/properties/sweets/items/properties/ingredients/properties/fructose",
                  "type": "integer",
                  "title": "Amount of fructose",
                  "description": "Units: milligrams",
                  "default": 0,
                  "examples": [
                    300
                  ]
                },
                "vanilla": {
                  "$id": "#/properties/sweets/items/properties/ingredients/properties/vanilla",
                  "type": "integer",
                  "title": "Amount of vanilla",
                  "description": "Units: milligrams",
                  "default": 0,
                  "examples": [
                    70
                  ]
                },
                "water" : {
                  "$id" : "#/properties/sweets/items/properties/ingredients/properties/water",
                  "type": "integer",
                  "title" : "Amount of vanilla",
                  "description": "Units: milliliters",
                  "examples": [
                    150
                  ]
                },
                "milk" : {
                  "$id": "#/properties/sweets/items/properties/ingredients/properties/milk",
                  "type": "integer",
                  "title" : "Amount of milk",
                  "description": "Units: milliliters",
                  "examples": [
                    100
                  ]
                }
              }
            },
            "values": {
              "$id": "#/items/properties/values",
              "type": "object",
              "title": "The Values Schema",
              "required": [
                "proteins",
                "fats",
                "carbohydrates"
              ],
              "properties": {
                "proteins": {
                  "$id": "#/properties/sweets/items/properties/values/properties/proteins",
                  "type": "number",
                  "title": "The Proteins Schema",
                  "default": 0.0,
                  "examples": [
                    2.3
                  ]
                },
                "fats": {
                  "$id": "#/properties/sweets/items/properties/values/properties/fats",
                  "type": "number",
                  "title": "Fats number",
                  "description": "Units: gram",
                  "default": 0.0,
                  "examples": [
                    4.1
                  ]
                },
                "carbohydrates": {
                  "$id": "#/properties/sweets/items/properties/values/properties/carbohydrates",
                  "type": "number",
                  "title": "Carbohydrates number",
                  "description": "Units: gram",
                  "default": 0.0,
                  "examples": [
                    32.1
                  ]
                }
              }
            },
            "production": {
              "$id": "#/properties/sweets/items/properties/production",
              "type": "string",
              "title": "Candy producer",
              "description": "Units: gram",
              "default": "",
              "examples": [
                "Roshen"
              ],
              "pattern": "^(.*)$"
            }
          }
        }
      }
    }
}